total 72
drwxrwxr-x  2 pamasi pamasi  4096 gen 13 12:18 .
drwxr-xr-x 15 pamasi pamasi  4096 gen 13 12:18 ..
-rwxrwxr-x  1 pamasi pamasi 21992 gen 13 12:18 ex01
-rw-rw-r--  1 pamasi pamasi  2572 gen 13 12:18 ex01.c
-rwxrwxr-x  1 pamasi pamasi 22552 gen 13 12:18 ex02
-rw-rw-r--  1 pamasi pamasi  3667 gen 13 12:18 ex02.c
-rw-rw-r--  1 pamasi pamasi    75 gen 13 12:18 input.txt
-rwxrwxr-x  1 pamasi pamasi  3378 dic 17 15:55 lab10.txt
total 56
drwxrwxr-x  2 pamasi pamasi 4096 gen 13 12:20 .
drwxr-xr-x 15 pamasi pamasi 4096 gen 13 12:18 ..
-rw-rw-r--  1 pamasi pamasi 4701 gen 13 12:18 alfa.txt
-rw-rw-r--  1 pamasi pamasi 2099 gen 13 12:18 alfa.txt_mod
-rw-rw-r--  1 pamasi pamasi  326 gen 13 12:19 ex01.c
-rw-rw-r--  1 pamasi pamasi  780 gen 13 12:38 ex02.txt
-rwxrwxr-x  1 pamasi pamasi  508 gen 13 12:18 ex03.sh
-rw-rw-r--  1 pamasi pamasi 1183 gen 13 12:18 ex04.c
-rw-rw-r--  1 pamasi pamasi  156 feb  7 12:20 ex06.txt
-rw-rw-r--  1 pamasi pamasi 2684 gen 13 12:18 lab11.txt
-rw-rw-r--  1 pamasi pamasi 2434 gen 13 12:18 lab11.txt_mod
-rw-rw-r--  1 pamasi pamasi    0 gen 13 12:18 out
-rw-rw-r--  1 pamasi pamasi 2916 gen 13 12:18 prova.txt
-rw-rw-r--  1 pamasi pamasi  918 gen 13 12:18 prova.txt_mod
total 12
drwxrwxr-x 2 pamasi pamasi 4096 dic 22 23:19 .
drwxrwxr-x 7 pamasi pamasi 4096 gen 13 12:18 ..
-rw-rw-r-- 1 pamasi pamasi 2684 dic 22 23:19 ex03.c
total 60
drwxrwxr-x  4 pamasi pamasi 4096 dic 23 20:39 .
drwxr-xr-x 15 pamasi pamasi 4096 gen 13 12:18 ..
-rwxrwxr-x  1 pamasi pamasi  897 dic 17 15:55 ex01.sh
-rwxrwxr-x  1 pamasi pamasi  620 dic 17 15:55 ex02.sh
-rwxrwxr-x  1 pamasi pamasi  986 dic 17 15:55 ex03.sh
-rw-rw-r--  1 pamasi pamasi  549 dic 17 15:55 ex04_bad.sh
-rw-rw-r--  1 pamasi pamasi  333 dic 17 15:55 ex04.sh
-rw-rw-r--  1 pamasi pamasi  277 dic 17 15:55 ex05.sh
-rw-rw-r--  1 pamasi pamasi   73 dic 17 15:55 input.txt
drwxrwxr-x  3 pamasi pamasi 4096 dic 17 15:55 Lab07
-rwxrwxr-x  1 pamasi pamasi 3572 dic 17 15:55 lab08.txt
-rw-rw-r--  1 pamasi pamasi  658 dic 17 15:55 out0.txt
-rwxrwxr-x  1 pamasi pamasi   77 dic 17 15:55 proa.sh
-rw-rw-r--  1 pamasi pamasi    0 dic 17 15:55 prova.txt
-rw-rw-r--  1 pamasi pamasi  706 dic 17 15:55 tmp
-rw-rw-r--  1 pamasi pamasi    0 dic 17 15:55 vim
drwxrwxr-x  2 pamasi pamasi 4096 dic 17 15:55 .vscode