./Lab07/ex03.c:31:int main(int argc, char **argv){
./Lab07/ex02.c:26:int main(int argc, char **argv){
./Lab07/lab07e01recursive.c:7:main (
./Lab07/prova.c:26:int main(int argc, char **argv){
./Lab07/ex01.c:10:int main (int argc, char *argv[]){
./Lab07/ex03.c:31:int main(int argc, char **argv){
./Lab07/ex02.c:26:int main(int argc, char **argv){
./Lab07/prova.c:26:int main(int argc, char **argv){
./Lab07/ex01.c:10:int main (int argc, char *argv[]){
./Lab07/ex03.c:31:int main(int argc, char **argv){
./Lab07/ex02.c:26:int main(int argc, char **argv){
./Lab07/prova.c:26:int main(int argc, char **argv){
./Lab07/ex01.c:10:int main (int argc, char *argv[]){
